digraph "Rectangle.testPerimeter():int" {
size = "11,7.5";
codeblock_35 [ shape = box, label = "block 35\nload 0 of type Rectangle\ncall Rectangle.perimeter():int [Rectangle.perimeter():int]\nload 0 of type Rectangle\ngetfield Rectangle.b:int\nconst 2\nmul int\nsub int\nload 0 of type Rectangle\ngetfield Rectangle.h:int\nconst 2\nmul int"];
codeblock_34 [ shape = box, label = "block 34\nif_cmpne int\nnewstring 	> assert failed @Rectangle.kit::28.5\\n\ncall String.output():void [String.output():void]\nconst 0\nreturn int"];
codeblock_35->codeblock_34 [color = blue label = "" fontsize = 8]
codeblock_33 [ shape = box, label = "block 33\nif_cmpeq int\nconst 1\nreturn int"];
codeblock_35->codeblock_33 [color = blue label = "" fontsize = 8]
}