digraph "Rectangle.area():int" {
size = "11,7.5";
codeblock_42 [ shape = box, label = "block 42\nload 0 of type Rectangle\ngetfield Rectangle.b:int\nload 0 of type Rectangle\ngetfield Rectangle.h:int\nmul int\nreturn int"];
}