digraph "Rectangle.testNegativeSide():int" {
size = "11,7.5";
codeblock_45 [ shape = box, label = "block 45\nload 0 of type Rectangle\nconst 10\nneg int\nputfield Rectangle.b:int\nload 0 of type Rectangle\ngetfield Rectangle.b:int\nconst 0"];
codeblock_44 [ shape = box, label = "block 44\nif_cmple int\nnewstring 	> assert failed @Rectangle.kit::35.5\\n\ncall String.output():void [String.output():void]\nconst 0\nreturn int"];
codeblock_45->codeblock_44 [color = blue label = "" fontsize = 8]
codeblock_43 [ shape = box, label = "block 43\nif_cmpgt int\nconst 1\nreturn int"];
codeblock_45->codeblock_43 [color = blue label = "" fontsize = 8]
}