digraph "Shape.testTrueRectangle():int" {
size = "11,7.5";
codeblock_24 [ shape = box, label = "block 24\nnew Rectangle\ndup Rectangle\nconst 4\nconst 10\ncall Rectangle(int,int) [Rectangle(int,int)]\nstore 1 of type Rectangle\nconst true"];
codeblock_23 [ shape = box, label = "block 23\nif_false\nnewstring 	> assert failed @Shape.kit::20.5\\n\ncall String.output():void [String.output():void]\nconst 0\nreturn int"];
codeblock_24->codeblock_23 [color = blue label = "" fontsize = 8]
codeblock_22 [ shape = box, label = "block 22\nif_true\nconst 1\nreturn int"];
codeblock_24->codeblock_22 [color = blue label = "" fontsize = 8]
}