digraph "Shape.testFalse():int" {
size = "11,7.5";
codeblock_28 [ shape = box, label = "block 28\nconst false"];
codeblock_27 [ shape = box, label = "block 27\nif_false\nnewstring 	> assert failed @Shape.kit::24.5\\n\ncall String.output():void [String.output():void]\nconst 0\nreturn int"];
codeblock_28->codeblock_27 [color = blue label = "" fontsize = 8]
codeblock_26 [ shape = box, label = "block 26\nif_true\nconst 1\nreturn int"];
codeblock_28->codeblock_26 [color = blue label = "" fontsize = 8]
}