digraph "Shape.main():void" {
size = "11,7.5";
codeblock_0 [ shape = box, label = "block 0\nnew Square\ndup Square\nconst 4\ncall Square(int) [Square(int)]\nstore 0 of type Square\nload 0 of type Square\ncall Square.toString():String [Square.toString():String]\ncall String.output():void [String.output():void]\nnewstring \\n\ncall String.output():void [String.output():void]\nnew Rectangle\ndup Rectangle\nconst 4\nconst 10\ncall Rectangle(int,int) [Rectangle(int,int)]\nstore 1 of type Rectangle\nload 1 of type Rectangle\ncall Rectangle.toString():String [Rectangle.toString():String]\ncall String.output():void [String.output():void]\nreturn void"];
}