digraph "Square.area():int" {
size = "11,7.5";
codeblock_16 [ shape = box, label = "block 16\nload 0 of type Square\ngetfield Square.l:int\nload 0 of type Square\ngetfield Square.l:int\nmul int\nreturn int"];
}