digraph "Square.testNegativeSide():int" {
size = "11,7.5";
codeblock_19 [ shape = box, label = "block 19\nload 0 of type Square\nconst 10\nneg int\nputfield Square.l:int\nload 0 of type Square\ngetfield Square.l:int\nconst 0"];
codeblock_18 [ shape = box, label = "block 18\nif_cmple int\nnewstring 	> assert failed @Square.kit::32.5\\n\ncall String.output():void [String.output():void]\nconst 0\nreturn int"];
codeblock_19->codeblock_18 [color = blue label = "" fontsize = 8]
codeblock_17 [ shape = box, label = "block 17\nif_cmpgt int\nconst 1\nreturn int"];
codeblock_19->codeblock_17 [color = blue label = "" fontsize = 8]
}