digraph "Square.toString():String" {
size = "11,7.5";
codeblock_50 [ shape = box, label = "block 50\nnewstring Square(\nload 0 of type Square\ngetfield Square.l:int\ncall String.concat(int):String [String.concat(int):String]\nnewstring )\\nPerimeter: \ncall String.concat(String):String [String.concat(String):String]\nload 0 of type Square\ncall Square.perimeter():int [Square.perimeter():int]\ncall String.concat(int):String [String.concat(int):String]\nnewstring \\nArea: \ncall String.concat(String):String [String.concat(String):String]\nload 0 of type Square\ncall Square.area():int [Square.area():int]\ncall String.concat(int):String [String.concat(int):String]\nreturn String"];
}