digraph "Square.testPerimeter():int" {
size = "11,7.5";
codeblock_9 [ shape = box, label = "block 9\nload 0 of type Square\ncall Square.perimeter():int [Square.perimeter():int]\nconst 4\ndiv int\nload 0 of type Square\ngetfield Square.l:int"];
codeblock_8 [ shape = box, label = "block 8\nif_cmpne int\nnewstring 	> assert failed @Square.kit::25.5\\n\ncall String.output():void [String.output():void]\nconst 0\nreturn int"];
codeblock_9->codeblock_8 [color = blue label = "" fontsize = 8]
codeblock_7 [ shape = box, label = "block 7\nif_cmpeq int\nconst 1\nreturn int"];
codeblock_9->codeblock_7 [color = blue label = "" fontsize = 8]
}